<?xml version="1.0" encoding="UTF-8" standalone="no"?>
<svg
   xmlns:dc="http://purl.org/dc/elements/1.1/"
   xmlns:cc="http://creativecommons.org/ns#"
   xmlns:rdf="http://www.w3.org/1999/02/22-rdf-syntax-ns#"
   xmlns:svg="http://www.w3.org/2000/svg"
   xmlns="http://www.w3.org/2000/svg"
   id="svg8"
   version="1.1"
   viewBox="0 0 96 128"
   height="128"
   width="96">
  <defs
     id="defs2" />
  <metadata
     id="metadata5">
    <rdf:RDF>
      <cc:Work
         rdf:about="">
        <dc:format>image/svg+xml</dc:format>
        <dc:type
           rdf:resource="http://purl.org/dc/dcmitype/StillImage" />
        <dc:title></dc:title>
      </cc:Work>
    </rdf:RDF>
  </metadata>
  <g
     transform="translate(-13.862457,-250.18557)"
     id="layer1">
    <path
       d="m 27.359847,320.5595 c -3.568809,-6.28399 -12.549244,-6.62801 -12.239459,7.46539 0.19525,8.88373 8.161541,14.73429 12.710207,16.99225 v -4e-5 c 7.462819,3.3374 7.074821,8.02545 9.957767,12.63469 12.816483,20.49077 22.397752,20.86298 34.488767,20.45245 18.372426,-1.3519 38.441451,-27.99623 36.334451,-50.74171 -1.28748,-13.8986 -2.57122,-34.98552 -27.262057,-47.67705 -1.533319,-3.89661 -36.683053,-4.74916 -44.259701,7.13317 -5.559704,4.83587 -12.611318,12.75447 -14.002127,29.67113"
       style="fill:#ffffff;fill-opacity:1;stroke:none;stroke-width:2.49999833;stroke-linecap:round;stroke-linejoin:round;stroke-miterlimit:4;stroke-dasharray:none;stroke-opacity:1"
       id="path933" />
    <path
       d="m 79.70012,256.27045 c 4.600279,4.22793 9.310066,15.00529 1.649403,23.41503 -7.731498,5.17663 -25.587301,-1.82989 -36.181971,4.6286 -11.680286,8.06747 -9.120478,19.61445 -10.723114,33.35911 -0.59049,5.06422 -1.838599,9.32628 -1.765854,9.34226 -7.39839,-2.22338 -1.723437,-5.74949 -9.07645,-11.93045 1.390804,-16.9167 7.927984,-23.43048 13.487688,-28.26635 2.660926,-2.31446 13.720678,-8.94039 17.822638,-15.07512 4.704821,-7.03638 1.762585,-14.78002 -1.827616,-17.03398 z"
       style="fill:#d46513;fill-opacity:1;stroke:none;stroke-width:0.99999928;stroke-linecap:round;stroke-linejoin:round;stroke-miterlimit:4;stroke-dasharray:none;stroke-opacity:1"
       id="path885" />
    <path
       id="path21"
       d="m 23.087695,316.48978 c 1.390809,-16.91666 8.442423,-24.83526 14.002127,-29.67113 2.660926,-2.31446 13.720678,-8.94039 17.822638,-15.07512 4.704821,-7.03638 1.762585,-14.78002 -1.827616,-17.03398"
       style="fill:none;stroke:#00000a;stroke-width:2.49999833;stroke-linecap:round;stroke-linejoin:miter;stroke-miterlimit:4;stroke-dasharray:none;stroke-opacity:1" />
    <path
       id="path831"
       d="m 58.600418,251.44521 c 2.390735,1.52734 3.432263,4.50255 3.729303,5.67617"
       style="fill:none;stroke:#00000a;stroke-width:2.49999833;stroke-linecap:round;stroke-linejoin:miter;stroke-miterlimit:4;stroke-dasharray:none;stroke-opacity:1" />
    <path
       id="path831-3"
       d="m 65.602552,251.92687 c 1.972693,0.85796 4.032655,3.38162 4.218392,5.25347"
       style="fill:none;stroke:#00000a;stroke-width:2.49999833;stroke-linecap:round;stroke-linejoin:miter;stroke-miterlimit:4;stroke-dasharray:none;stroke-opacity:1" />
    <path
       id="path831-3-6"
       d="m 72.204275,254.42922 c 1.237786,0.30312 3.124828,1.80174 3.656403,2.90502"
       style="fill:none;stroke:#00000a;stroke-width:2.49999833;stroke-linecap:round;stroke-linejoin:miter;stroke-miterlimit:4;stroke-dasharray:none;stroke-opacity:1" />
    <path
       d="m 79.70012,256.27045 c 4.600279,4.22793 9.310066,15.00529 1.649403,23.41503 24.690837,12.69153 26.713127,33.7309 27.262057,47.67705"
       style="fill:none;stroke:#00000a;stroke-width:2.49999833;stroke-linecap:round;stroke-linejoin:round;stroke-miterlimit:4;stroke-dasharray:none;stroke-opacity:1"
       id="path878" />
    <path
       id="path896"
       d="m 51.891701,298.26181 c 0.01965,-7.34464 5.696375,-11.09604 10.349205,-4.3638"
       style="fill:none;stroke:#000000;stroke-width:2.49999833;stroke-linecap:round;stroke-linejoin:round;stroke-miterlimit:4;stroke-dasharray:none;stroke-opacity:1" />
    <path
       id="path898"
       d="m 83.605068,293.18069 c 2.124358,-6.19989 7.91281,-3.03568 8.351995,0.17915"
       style="fill:none;stroke:#000000;stroke-width:2.49999833;stroke-linecap:round;stroke-linejoin:round;stroke-miterlimit:4;stroke-dasharray:none;stroke-opacity:1" />
    <path
       id="path900"
       d="m 27.359847,320.5595 c -3.568809,-6.28399 -12.549244,-6.62801 -12.239459,7.46539 0.19525,8.88373 8.161541,14.73429 12.710207,16.99225"
       style="fill:none;stroke:#000000;stroke-width:2.49999833;stroke-linecap:round;stroke-linejoin:round;stroke-miterlimit:4;stroke-dasharray:none;stroke-opacity:1" />
    <path
       id="path902"
       d="m 21.721631,325.49049 c 4.597883,1.29347 3.960115,3.82628 0.57496,5.91806 l 2.844516,2.80951"
       style="fill:none;stroke:#000000;stroke-width:2.49999833;stroke-linecap:round;stroke-linejoin:round;stroke-miterlimit:4;stroke-dasharray:none;stroke-opacity:1" />
    <g
       transform="matrix(3.779525,0,0,3.779525,-38.531048,-695.39694)"
       style="stroke:#000040;stroke-width:1.05833405;stroke-miterlimit:4;stroke-dasharray:none;stroke-opacity:1"
       id="g1021">
      <path
         style="fill:none;stroke:#000040;stroke-width:1.05833405;stroke-linecap:round;stroke-linejoin:round;stroke-miterlimit:4;stroke-dasharray:none;stroke-opacity:1"
         d="m 23.387457,265.00224 h 4.233332"
         id="path962" />
      <path
         style="fill:none;stroke:#000040;stroke-width:1.05833405;stroke-linecap:round;stroke-linejoin:round;stroke-miterlimit:4;stroke-dasharray:none;stroke-opacity:1"
         d="m 29.737457,265.00224 5.291667,-10e-6"
         id="path964" />
      <path
         style="fill:none;stroke:#000040;stroke-width:1.05833405;stroke-linecap:round;stroke-linejoin:round;stroke-miterlimit:4;stroke-dasharray:none;stroke-opacity:1"
         d="m 23.387457,267.1189 h 3.174999"
         id="path968" />
      <path
         style="fill:none;stroke:#000040;stroke-width:1.05833405;stroke-linecap:round;stroke-linejoin:round;stroke-miterlimit:4;stroke-dasharray:none;stroke-opacity:1"
         d="m 28.679124,267.1189 h 2.116667"
         id="path970" />
      <path
         style="fill:none;stroke:#000040;stroke-width:1.05833405;stroke-linecap:round;stroke-linejoin:round;stroke-miterlimit:4;stroke-dasharray:none;stroke-opacity:1"
         d="M 35.029124,267.1189 H 32.912456"
         id="path972" />
      <path
         style="fill:none;stroke:#000040;stroke-width:1.05833405;stroke-linecap:round;stroke-linejoin:round;stroke-miterlimit:4;stroke-dasharray:none;stroke-opacity:1"
         d="m 23.387458,269.23557 h 2.116666"
         id="path974" />
      <path
         style="fill:none;stroke:#000040;stroke-width:1.05833405;stroke-linecap:round;stroke-linejoin:round;stroke-miterlimit:4;stroke-dasharray:none;stroke-opacity:1"
         d="m 27.620789,269.23557 h 2.116668"
         id="path976" />
      <path
         style="fill:none;stroke:#000040;stroke-width:1.05833405;stroke-linecap:round;stroke-linejoin:round;stroke-miterlimit:4;stroke-dasharray:none;stroke-opacity:1"
         d="m 31.854122,269.23557 h 3.175002"
         id="path978" />
      <path
         style="fill:none;stroke:#000040;stroke-width:1.05833405;stroke-linecap:round;stroke-linejoin:round;stroke-miterlimit:4;stroke-dasharray:none;stroke-opacity:1"
         d="m 23.387458,271.35224 h 3.174998"
         id="path980" />
      <path
         style="fill:none;stroke:#000040;stroke-width:1.05833405;stroke-linecap:round;stroke-linejoin:round;stroke-miterlimit:4;stroke-dasharray:none;stroke-opacity:1"
         d="m 28.679124,271.35224 2.116667,-10e-6"
         id="path982" />
      <path
         style="fill:none;stroke:#000040;stroke-width:1.05833405;stroke-linecap:round;stroke-linejoin:round;stroke-miterlimit:4;stroke-dasharray:none;stroke-opacity:1"
         d="m 32.912457,271.35223 h 2.116667"
         id="path984" />
      <path
         style="fill:none;stroke:#000040;stroke-width:1.05833405;stroke-linecap:round;stroke-linejoin:round;stroke-miterlimit:4;stroke-dasharray:none;stroke-opacity:1"
         d="M 35.029124,273.4689 H 31.854123"
         id="path986" />
      <path
         style="fill:none;stroke:#000040;stroke-width:1.05833405;stroke-linecap:round;stroke-linejoin:round;stroke-miterlimit:4;stroke-dasharray:none;stroke-opacity:1"
         d="m 29.737458,273.46891 -3.175002,-10e-6"
         id="path988" />
      <path
         style="fill:none;stroke:#000040;stroke-width:1.05833405;stroke-linecap:round;stroke-linejoin:round;stroke-miterlimit:4;stroke-dasharray:none;stroke-opacity:1"
         d="m 23.387458,273.46891 h 1.058333"
         id="path990" />
      <path
         style="fill:none;stroke:#000040;stroke-width:1.05833405;stroke-linecap:round;stroke-linejoin:round;stroke-miterlimit:4;stroke-dasharray:none;stroke-opacity:1"
         d="m 23.387457,275.58557 h 3.175"
         id="path992" />
      <path
         style="fill:none;stroke:#000040;stroke-width:1.05833405;stroke-linecap:round;stroke-linejoin:round;stroke-miterlimit:4;stroke-dasharray:none;stroke-opacity:1"
         d="m 28.679124,275.58557 h 3.175"
         id="path994" />
      <path
         style="fill:none;stroke:#000040;stroke-width:1.05833405;stroke-linecap:round;stroke-linejoin:round;stroke-miterlimit:4;stroke-dasharray:none;stroke-opacity:1"
         d="m 33.97079,275.58557 h 1.058334"
         id="path996" />
      <path
         style="fill:none;stroke:#000040;stroke-width:1.05833405;stroke-linecap:round;stroke-linejoin:round;stroke-miterlimit:4;stroke-dasharray:none;stroke-opacity:1"
         d="m 35.029124,277.70223 -3.175001,1e-5"
         id="path998" />
      <path
         style="fill:none;stroke:#000040;stroke-width:1.05833405;stroke-linecap:round;stroke-linejoin:round;stroke-miterlimit:4;stroke-dasharray:none;stroke-opacity:1"
         d="M 29.737456,277.70224 H 23.387457"
         id="path1000" />
    </g>
  </g>
</svg>
